<svg width="64" height="30" viewBox="0 0 64 30" fill="none" xmlns="http://www.w3.org/2000/svg">
<path d="M32.6391 29.951C40.9098 29.951 47.6146 23.2463 47.6146 14.9755C47.6146 6.70477 40.9098 0 32.6391 0C24.3684 0 17.6636 6.70477 17.6636 14.9755C17.6636 23.2463 24.3684 29.951 32.6391 29.951Z" fill="#009CFC"/>
<path d="M49.1506 29.951C57.2093 29.951 63.7422 23.2463 63.7422 14.9755C63.7422 6.70477 57.2093 0 49.1506 0C41.0919 0 34.5591 6.70477 34.5591 14.9755C34.5591 23.2463 41.0919 29.951 49.1506 29.951Z" fill="#EA2A8F"/>
<path d="M14.9133 4.76185C16.467 4.76077 18.0002 5.1177 19.3953 5.80523C20.7904 6.49276 22.0101 7.49261 22.961 8.72797C23.0225 8.80647 23.1118 8.85806 23.2102 8.87201C23.3087 8.88596 23.4087 8.86119 23.4894 8.80285L26.7161 6.49293C26.7583 6.46295 26.7941 6.42479 26.8213 6.3807C26.8486 6.33661 26.8668 6.28748 26.8749 6.2362C26.883 6.18492 26.8808 6.13254 26.8685 6.08212C26.8561 6.03171 26.8339 5.98429 26.803 5.94265C25.4133 4.09511 23.6163 2.59686 21.5532 1.5657C19.4901 0.534548 17.2172 -0.00139858 14.9133 2.74092e-06C6.83131 2.74092e-06 0.251315 6.46025 0.000101676 14.5244C-0.00108252 14.5764 0.00808731 14.6281 0.0270874 14.6764C0.0460876 14.7247 0.0745331 14.7688 0.110729 14.8059C0.146925 14.843 0.190138 14.8724 0.237836 14.8925C0.285534 14.9125 0.33674 14.9228 0.388437 14.9226H4.34874C4.44802 14.9232 4.54372 14.8853 4.61594 14.8168C4.68815 14.7483 4.73133 14.6544 4.73649 14.5547C4.85103 11.9186 5.97332 9.42869 7.86934 7.6042C9.76536 5.7797 12.2887 4.76148 14.9133 4.76185Z" fill="white"/>
<path d="M29.8353 14.4896C29.8349 14.3847 29.7931 14.2843 29.7193 14.2103C29.6454 14.1362 29.5454 14.0946 29.4411 14.0944H19.7371C19.6847 14.0944 19.6327 14.1048 19.5842 14.125C19.5358 14.1452 19.4917 14.1748 19.4546 14.2121C19.4175 14.2494 19.3881 14.2937 19.368 14.3424C19.3479 14.3912 19.3376 14.4434 19.3376 14.4961V18.5609C19.3376 18.6137 19.3479 18.6659 19.368 18.7146C19.3881 18.7634 19.4175 18.8077 19.4546 18.845C19.4917 18.8823 19.5358 18.9119 19.5842 18.9321C19.6327 18.9522 19.6847 18.9626 19.7371 18.9626H23.6868C23.7547 18.9625 23.8215 18.9798 23.8809 19.0128C23.9404 19.0458 23.9905 19.0934 24.0265 19.1513C24.0626 19.2091 24.0834 19.2752 24.0871 19.3433C24.0907 19.4115 24.0771 19.4795 24.0474 19.5409C23.2357 21.1917 21.9963 22.592 20.4597 23.5943C18.923 24.5966 17.1461 25.1638 15.3158 25.2363C15.2136 25.2412 15.1172 25.2856 15.0467 25.3602C14.9762 25.4348 14.9371 25.5339 14.9375 25.6368V29.5976C14.9373 29.651 14.9478 29.7039 14.9682 29.7531C14.9886 29.8024 15.0186 29.8471 15.0564 29.8846C15.0943 29.922 15.1391 29.9515 15.1884 29.9713C15.2377 29.9911 15.2905 30.0009 15.3436 29.9999C23.386 29.7705 29.8359 23.1445 29.8359 15.0036C29.8359 14.9894 29.8353 14.7047 29.8353 14.4896Z" fill="white"/>
<path d="M1.69759 21.5526C2.27058 21.0083 3.03512 20.7151 3.8231 20.7374C4.61108 20.7597 5.358 21.0957 5.89965 21.6715C6.44117 22.2475 6.73293 23.0161 6.71076 23.8084C6.68859 24.6007 6.35431 25.3516 5.78143 25.8961C5.20851 26.4405 4.44395 26.7339 3.65592 26.7116C2.86789 26.6893 2.12094 26.3532 1.57937 25.7772C1.03785 25.2012 0.746097 24.4326 0.768267 23.6403C0.790437 22.8481 1.12471 22.0971 1.69759 21.5526Z" fill="#009CFC"/>
<path d="M9.62129 25.8963C9.04837 26.4408 8.2838 26.7341 7.49578 26.7118C6.70775 26.6895 5.96079 26.3534 5.41923 25.7775C4.87771 25.2015 4.58594 24.4328 4.60811 23.6406C4.63028 22.8483 4.96457 22.0973 5.53745 21.5529C6.11036 21.0084 6.87493 20.7151 7.66296 20.7374C8.45099 20.7597 9.19794 21.0958 9.73951 21.6717C10.2808 22.2477 10.5725 23.0162 10.5503 23.8083C10.5282 24.6005 10.194 25.3513 9.62129 25.8958" fill="#EA2A8F"/>
</svg>
