<svg width="319" height="551" viewBox="0 0 319 551" fill="none" xmlns="http://www.w3.org/2000/svg">
<path d="M93 4V547" stroke="white" stroke-opacity="0.2"/>
<circle cx="93" cy="2" r="2" fill="white" fill-opacity="0.25"/>
<circle cx="93" cy="549" r="2" fill="white" fill-opacity="0.25"/>
<path d="M91.5 178H38" stroke="white" stroke-opacity="0.45"/>
<path d="M91.5 295H38" stroke="white" stroke-opacity="0.45"/>
<path d="M292 243H195" stroke="white" stroke-opacity="0.45"/>
<path d="M292 327H195" stroke="white" stroke-opacity="0.45"/>
<path d="M282 146H260" stroke="white" stroke-opacity="0.45"/>
<path d="M292 368H190" stroke="white" stroke-opacity="0.45"/>
<path d="M191 4V547" stroke="white" stroke-opacity="0.2"/>
<circle cx="191" cy="2" r="2" fill="white" fill-opacity="0.25"/>
<circle cx="191" cy="549" r="2" fill="white" fill-opacity="0.25"/>
<path d="M163 4V547" stroke="white" stroke-opacity="0.2"/>
<circle cx="163" cy="2" r="2" fill="white" fill-opacity="0.25"/>
<circle cx="163" cy="549" r="2" fill="white" fill-opacity="0.25"/>
<path d="M160 95.5C198.1 99 260 122.794 260 141.424C260 169.95 184.998 169.951 167.4 169.951C149.801 169.951 66 162.501 66 141.424C66 111.15 260 154.814 260 185.669C260 210.354 187.931 215.36 151.896 214.778C123.264 213.226 66 207.21 66 185.669C66 157.143 260 201.97 260 230.497C260 259.024 156.505 260.188 151.896 260.188C147.287 260.188 66 257.859 66 230.497C66 203.135 260 248.545 260 275.907C260 303.269 163.209 305.016 151.896 305.016C140.583 305.016 66 303.269 66 275.907C66 248.545 260 291.044 260 321.899C260 352.754 163.628 349.261 151.896 349.261C140.164 349.261 66 349.261 66 321.899C66 294.537 260 336.453 260 366.727C260 397 166.981 397 151.896 397" stroke="white"/>
<path d="M172.5 97C203.333 103.833 264 122.8 260 144C255 170.5 188.5 169.5 180.5 170" stroke="#009AFB" stroke-width="2"/>
<g filter="url(#filter0_d_763_2749)">
<ellipse cx="162.5" cy="95" rx="13.5" ry="14" fill="#009AFB"/>
</g>
<path d="M161.888 89.76H163.85V99.678H165.902V102H158.918V99.678H161.222V92.46L158.918 93.324V90.894L161.888 89.76Z" fill="white"/>
<circle cx="162.5" cy="95.5" r="19.6646" stroke="white"/>
<line x1="162.5" y1="66" x2="162.5" y2="89.1519" stroke="white"/>
<line x1="162.5" y1="101.848" x2="162.5" y2="125" stroke="white"/>
<line x1="133" y1="95.3735" x2="156.152" y2="95.3735" stroke="white"/>
<line x1="168.848" y1="95.3735" x2="192" y2="95.3735" stroke="white"/>
<g filter="url(#filter1_d_763_2749)">
<ellipse cx="162.5" cy="399" rx="13.5" ry="14" fill="#EA2A8E"/>
</g>
<path d="M159.456 398.908C160.488 398.356 161.58 398.08 162.732 398.08C163.908 398.08 164.91 398.428 165.738 399.124C166.578 399.82 166.998 400.792 166.998 402.04C166.998 403.372 166.548 404.41 165.648 405.154C164.748 405.886 163.638 406.252 162.318 406.252C158.622 406.252 156.774 404.128 156.774 399.88C156.774 398.8 156.93 397.846 157.242 397.018C157.554 396.178 157.98 395.512 158.52 395.02C159.06 394.516 159.672 394.138 160.356 393.886C161.04 393.634 161.784 393.508 162.588 393.508C163.752 393.508 164.874 393.76 165.954 394.264V396.64C165.078 396.064 164.076 395.776 162.948 395.776C160.896 395.776 159.732 396.82 159.456 398.908ZM159.456 401.086C159.576 402.166 159.858 402.934 160.302 403.39C160.746 403.834 161.346 404.056 162.102 404.056C162.75 404.056 163.278 403.9 163.686 403.588C164.094 403.276 164.298 402.802 164.298 402.166C164.298 400.942 163.5 400.33 161.904 400.33C161.04 400.33 160.224 400.582 159.456 401.086Z" fill="white"/>
<circle cx="162.5" cy="399.5" r="19.6646" stroke="white"/>
<line x1="162.5" y1="370" x2="162.5" y2="393.152" stroke="white"/>
<line x1="162.5" y1="405.848" x2="162.5" y2="429" stroke="white"/>
<line x1="133" y1="399.374" x2="156.152" y2="399.374" stroke="white"/>
<line x1="168.848" y1="399.374" x2="192" y2="399.374" stroke="white"/>
<g filter="url(#filter2_d_763_2749)">
<circle cx="93" cy="178" r="11" fill="#EA2A8E"/>
</g>
<path d="M88.945 173.67C89.955 172.95 91.125 172.59 92.455 172.59C93.545 172.59 94.435 172.845 95.125 173.355C95.825 173.865 96.175 174.615 96.175 175.605C96.175 176.375 95.925 177.035 95.425 177.585C94.935 178.125 94.265 178.645 93.415 179.145C92.415 179.735 91.8 180.135 91.57 180.345C91.3 180.605 91.16 180.85 91.15 181.08L96.25 181.065V183H88.6V181.995C88.6 181.445 88.68 180.95 88.84 180.51C89.01 180.07 89.28 179.675 89.65 179.325C90.03 178.975 90.345 178.715 90.595 178.545C90.845 178.365 91.225 178.125 91.735 177.825C91.765 177.805 91.79 177.79 91.81 177.78C91.83 177.77 91.855 177.755 91.885 177.735C91.915 177.715 91.94 177.7 91.96 177.69C92.02 177.65 92.145 177.58 92.335 177.48C92.535 177.37 92.665 177.295 92.725 177.255C92.785 177.215 92.89 177.15 93.04 177.06C93.19 176.96 93.295 176.885 93.355 176.835C93.415 176.775 93.49 176.695 93.58 176.595C93.68 176.495 93.75 176.405 93.79 176.325C93.83 176.245 93.865 176.15 93.895 176.04C93.925 175.93 93.94 175.815 93.94 175.695C93.94 175.325 93.79 175.045 93.49 174.855C93.19 174.655 92.775 174.555 92.245 174.555C91.105 174.555 90.005 174.96 88.945 175.77V173.67Z" fill="white"/>
<g filter="url(#filter3_d_763_2749)">
<circle cx="190" cy="242" r="11" fill="#009AFB"/>
</g>
<path d="M192.905 239.41C192.905 239.93 192.765 240.385 192.485 240.775C192.215 241.155 191.84 241.43 191.36 241.6C191.93 241.77 192.4 242.075 192.77 242.515C193.14 242.945 193.325 243.51 193.325 244.21C193.325 244.73 193.21 245.19 192.98 245.59C192.76 245.98 192.455 246.29 192.065 246.52C191.675 246.75 191.24 246.92 190.76 247.03C190.29 247.15 189.785 247.21 189.245 247.21C187.995 247.21 186.815 246.98 185.705 246.52V244.435C186.685 244.985 187.805 245.25 189.065 245.23C189.695 245.23 190.205 245.12 190.595 244.9C190.985 244.68 191.18 244.345 191.18 243.895C191.18 243.105 190.59 242.71 189.41 242.71H187.73L187.745 240.79L189.155 240.805C189.665 240.805 190.06 240.715 190.34 240.535C190.63 240.345 190.775 240.075 190.775 239.725C190.775 239.355 190.615 239.07 190.295 238.87C189.975 238.66 189.51 238.555 188.9 238.555C187.89 238.555 186.885 238.86 185.885 239.47V237.385C186.865 236.855 187.975 236.59 189.215 236.59C190.315 236.59 191.205 236.835 191.885 237.325C192.565 237.815 192.905 238.51 192.905 239.41Z" fill="white"/>
<g filter="url(#filter4_d_763_2749)">
<circle cx="93" cy="295" r="11" fill="#009AFB"/>
</g>
<path d="M93.595 289.8H95.83V296.265H97.375V298.14H95.83V300H93.685V298.14H88.33V296.28L93.595 289.8ZM93.685 296.265V292.545L90.67 296.265H93.685Z" fill="white"/>
<path d="M187 328.5C220.667 336.667 280.9 358.4 252.5 380" stroke="#EA2A8E" stroke-width="2"/>
<g filter="url(#filter5_d_763_2749)">
<circle cx="190" cy="327" r="11" fill="#EA2A8E"/>
</g>
<path d="M187.335 321.785H193.815V323.72L189.36 323.705L189.225 325.7C189.705 325.6 190.145 325.55 190.545 325.55C191.645 325.55 192.54 325.815 193.23 326.345C193.93 326.875 194.28 327.695 194.28 328.805C194.28 329.925 193.865 330.775 193.035 331.355C192.205 331.925 191.18 332.21 189.96 332.21C188.72 332.21 187.625 331.98 186.675 331.52V329.435C187.525 329.975 188.535 330.245 189.705 330.245C190.405 330.245 190.965 330.12 191.385 329.87C191.815 329.62 192.03 329.255 192.03 328.775C192.03 327.775 191.2 327.275 189.54 327.275C188.64 327.275 187.785 327.42 186.975 327.71L187.335 321.785Z" fill="white"/>
<path d="M102 177C121.833 178.5 169 185.5 206.5 198.5" stroke="#EA2A8E" stroke-width="2"/>
<path d="M201 243C232.833 252 286.2 274.3 245 291.5" stroke="#009AFB" stroke-width="2"/>
<path d="M84.0002 295C76.1669 292 61.8002 283.4 67.0002 273C73.5002 260 141 272.5 146 274" stroke="#009AFB" stroke-width="2"/>
<path d="M41 158.128L41 158.836L32.6 158.836L32.6 152.152L41 152.152L41 152.86L33.284 152.86L33.284 158.128L41 158.128ZM32.6 147.228L32.6 142.272L41 142.272L41 142.98L33.284 142.98L33.284 146.544C33.796 146.584 34.196 146.62 34.484 146.652C34.764 146.676 35.144 146.712 35.624 146.76C36.096 146.808 36.472 146.856 36.752 146.904C37.024 146.944 37.36 146.996 37.76 147.06C38.152 147.124 38.468 147.196 38.708 147.276C38.94 147.348 39.204 147.432 39.5 147.528C39.788 147.624 40.016 147.732 40.184 147.852C40.352 147.972 40.516 148.108 40.676 148.26C40.836 148.404 40.948 148.564 41.012 148.74C41.084 148.916 41.12 149.108 41.12 149.316C41.12 149.532 41.08 149.756 41 149.988L40.316 149.988C40.38 149.828 40.412 149.64 40.412 149.424C40.412 149.112 40.264 148.84 39.968 148.608C39.672 148.376 39.292 148.188 38.828 148.044C38.356 147.9 37.768 147.776 37.064 147.672C36.36 147.568 35.668 147.484 34.988 147.42C34.3 147.356 33.524 147.292 32.66 147.228C32.636 147.228 32.616 147.228 32.6 147.228ZM41 139.205L41 139.973L32.6 136.229L32.6 135.425L41 131.693L41 132.461L38.744 133.457L38.744 138.197L41 139.205ZM33.596 135.941L38.072 137.921L38.072 133.745L33.596 135.725C33.532 135.749 33.444 135.785 33.332 135.833C33.444 135.881 33.532 135.917 33.596 135.941ZM32.6 123.231L32.6 122.523L41 122.523L41 123.231L37.124 123.231L37.124 128.679L41 128.679L41 129.387L32.6 129.387L32.6 128.679L36.44 128.679L36.44 123.231L32.6 123.231ZM41 112.335L41 113.043L34.52 113.043L33.8 113.043L41 118.551L41 119.199L32.6 119.199L32.6 118.491L39.068 118.491L39.788 118.491L32.6 112.983L32.6 112.335L41 112.335ZM32.6 109.012L32.6 106.252C32.6 103.892 33.488 102.712 35.264 102.712C37.048 102.712 37.94 103.892 37.94 106.252L37.94 108.304L41 108.304L41 109.012L32.6 109.012ZM35.264 103.432C34.528 103.432 34.016 103.684 33.728 104.188C33.432 104.684 33.284 105.36 33.284 106.216L33.284 108.292L37.256 108.292L37.256 106.216C37.256 104.36 36.592 103.432 35.264 103.432ZM38.384 100.437C37.872 100.621 37.344 100.713 36.8 100.713C36.256 100.713 35.732 100.621 35.228 100.437C34.716 100.253 34.252 99.9851 33.836 99.6331C33.42 99.2811 33.088 98.8211 32.84 98.2531C32.592 97.6851 32.468 97.0491 32.468 96.3451C32.468 95.6411 32.592 95.0051 32.84 94.4371C33.088 93.8691 33.42 93.4091 33.836 93.0571C34.252 92.7051 34.716 92.4371 35.228 92.2531C35.732 92.0691 36.256 91.9771 36.8 91.9771C37.344 91.9771 37.872 92.0691 38.384 92.2531C38.888 92.4371 39.348 92.7051 39.764 93.0571C40.18 93.4091 40.512 93.8691 40.76 94.4371C41.008 95.0051 41.132 95.6411 41.132 96.3451C41.132 97.0491 41.008 97.6851 40.76 98.2531C40.512 98.8211 40.18 99.2811 39.764 99.6331C39.348 99.9851 38.888 100.253 38.384 100.437ZM38.564 93.0811C38.02 92.8251 37.432 92.6971 36.8 92.6971C36.168 92.6971 35.584 92.8251 35.048 93.0811C34.504 93.3371 34.052 93.7491 33.692 94.3171C33.324 94.8851 33.14 95.5611 33.14 96.3451C33.14 97.1291 33.324 97.8051 33.692 98.3731C34.052 98.9411 34.504 99.3531 35.048 99.6091C35.584 99.8651 36.168 99.9931 36.8 99.9931C37.432 99.9931 38.02 99.8651 38.564 99.6091C39.1 99.3531 39.552 98.9411 39.92 98.3731C40.28 97.8051 40.46 97.1291 40.46 96.3451C40.46 95.5611 40.28 94.8851 39.92 94.3171C39.552 93.7491 39.1 93.3371 38.564 93.0811ZM32.6 89.2344L32.6 85.9704C32.6 85.0904 32.78 84.3984 33.14 83.8944C33.492 83.3824 34.016 83.1264 34.712 83.1264C35.232 83.1264 35.652 83.2744 35.972 83.5704C36.284 83.8584 36.488 84.2144 36.584 84.6384C36.688 84.1424 36.908 83.7144 37.244 83.3544C37.58 82.9864 38.072 82.7984 38.72 82.7904C39.088 82.7904 39.416 82.8624 39.704 83.0064C39.984 83.1504 40.204 83.3304 40.364 83.5464C40.524 83.7544 40.656 84.0064 40.76 84.3024C40.856 84.5984 40.92 84.8744 40.952 85.1304C40.984 85.3864 41 85.6584 41 85.9464L41 89.2344L32.6 89.2344ZM38.648 83.5104C37.528 83.5104 36.968 84.2504 36.968 85.7304L36.968 88.5144L40.316 88.5144L40.316 86.0784C40.316 85.7984 40.308 85.5584 40.292 85.3584C40.276 85.1584 40.236 84.9344 40.172 84.6864C40.108 84.4384 40.02 84.2344 39.908 84.0744C39.796 83.9144 39.632 83.7824 39.416 83.6784C39.2 83.5664 38.944 83.5104 38.648 83.5104ZM34.808 83.8464C33.792 83.8464 33.284 84.5704 33.284 86.0184L33.284 88.5144L36.296 88.5144L36.296 85.6704C36.296 85.1504 36.176 84.7184 35.936 84.3744C35.688 84.0224 35.312 83.8464 34.808 83.8464ZM41 80.4828L41 81.2508L32.6 77.5068L32.6 76.7028L41 72.9708L41 73.7388L38.744 74.7348L38.744 79.4748L41 80.4828ZM33.596 77.2188L38.072 79.1988L38.072 75.0228L33.596 77.0028C33.532 77.0268 33.444 77.0628 33.332 77.1108C33.444 77.1588 33.532 77.1948 33.596 77.2188ZM32.6 64.5081L32.6 63.8001L41 63.8001L41 64.5081L37.124 64.5081L37.124 69.9561L41 69.9561L41 70.6641L32.6 70.6641L32.6 69.9561L36.44 69.9561L36.44 64.5081L32.6 64.5081ZM41 53.6126L41 54.3206L34.52 54.3206L33.8 54.3206L41 59.8286L41 60.4766L32.6 60.4766L32.6 59.7686L39.068 59.7686L39.788 59.7686L32.6 54.2606L32.6 53.6126L41 53.6126ZM32.6 50.2891L32.6 44.7091L33.284 44.7091L33.284 49.5811L36.428 49.5811L36.428 45.0691L37.112 45.0691L37.112 49.5811L40.316 49.5811L40.316 44.6251L41 44.6251L41 50.2891L32.6 50.2891Z" fill="white"/>
<path d="M286.6 233.836L286.6 230.572C286.6 229.692 286.78 229 287.14 228.496C287.492 227.984 288.016 227.728 288.712 227.728C289.232 227.728 289.652 227.876 289.972 228.172C290.284 228.46 290.488 228.816 290.584 229.24C290.688 228.744 290.908 228.316 291.244 227.956C291.58 227.588 292.072 227.4 292.72 227.392C293.088 227.392 293.416 227.464 293.704 227.608C293.984 227.752 294.204 227.932 294.364 228.148C294.524 228.356 294.656 228.608 294.76 228.904C294.856 229.2 294.92 229.476 294.952 229.732C294.984 229.988 295 230.26 295 230.548L295 233.836L286.6 233.836ZM292.648 228.112C291.528 228.112 290.968 228.852 290.968 230.332L290.968 233.116L294.316 233.116L294.316 230.68C294.316 230.4 294.308 230.16 294.292 229.96C294.276 229.76 294.236 229.536 294.172 229.288C294.108 229.04 294.02 228.836 293.908 228.676C293.796 228.516 293.632 228.384 293.416 228.28C293.2 228.168 292.944 228.112 292.648 228.112ZM288.808 228.448C287.792 228.448 287.284 229.172 287.284 230.62L287.284 233.116L290.296 233.116L290.296 230.272C290.296 229.752 290.176 229.32 289.936 228.976C289.688 228.624 289.312 228.448 288.808 228.448ZM295 221.861L295 224.621L286.6 224.621L286.6 223.913L289.672 223.913L289.672 221.861C289.672 219.501 290.56 218.321 292.336 218.321C294.112 218.321 295 219.501 295 221.861ZM290.356 223.901L294.316 223.901L294.316 221.825C294.316 220.969 294.172 220.293 293.884 219.797C293.588 219.293 293.072 219.041 292.336 219.041C291.016 219.041 290.356 219.969 290.356 221.825L290.356 223.901ZM295 216.521L295 217.229L286.6 217.229L286.6 216.521L295 216.521ZM295 212.483L295 213.191L286.6 213.191L286.6 206.507L295 206.507L295 207.215L287.284 207.215L287.284 212.483L295 212.483ZM292.384 203.492C291.872 203.676 291.344 203.768 290.8 203.768C290.256 203.768 289.732 203.676 289.228 203.492C288.716 203.308 288.252 203.04 287.836 202.688C287.42 202.336 287.088 201.876 286.84 201.308C286.592 200.74 286.468 200.104 286.468 199.4C286.468 198.696 286.592 198.06 286.84 197.492C287.088 196.924 287.42 196.464 287.836 196.112C288.252 195.76 288.716 195.492 289.228 195.308C289.732 195.124 290.256 195.032 290.8 195.032C291.344 195.032 291.872 195.124 292.384 195.308C292.888 195.492 293.348 195.76 293.764 196.112C294.18 196.464 294.512 196.924 294.76 197.492C295.008 198.06 295.132 198.696 295.132 199.4C295.132 200.104 295.008 200.74 294.76 201.308C294.512 201.876 294.18 202.336 293.764 202.688C293.348 203.04 292.888 203.308 292.384 203.492ZM292.564 196.136C292.02 195.88 291.432 195.752 290.8 195.752C290.168 195.752 289.584 195.88 289.048 196.136C288.504 196.392 288.052 196.804 287.692 197.372C287.324 197.94 287.14 198.616 287.14 199.4C287.14 200.184 287.324 200.86 287.692 201.428C288.052 201.996 288.504 202.408 289.048 202.664C289.584 202.92 290.168 203.048 290.8 203.048C291.432 203.048 292.02 202.92 292.564 202.664C293.1 202.408 293.552 201.996 293.92 201.428C294.28 200.86 294.46 200.184 294.46 199.4C294.46 198.616 294.28 197.94 293.92 197.372C293.552 196.804 293.1 196.392 292.564 196.136ZM286.6 191.045L286.6 186.089L295 186.089L295 186.797L287.284 186.797L287.284 190.361C287.796 190.401 288.196 190.437 288.484 190.469C288.764 190.493 289.144 190.529 289.624 190.577C290.096 190.625 290.472 190.673 290.752 190.721C291.024 190.761 291.36 190.813 291.76 190.877C292.152 190.941 292.468 191.013 292.708 191.093C292.94 191.165 293.204 191.249 293.5 191.345C293.788 191.441 294.016 191.549 294.184 191.669C294.352 191.789 294.516 191.925 294.676 192.077C294.836 192.221 294.948 192.381 295.012 192.557C295.084 192.733 295.12 192.925 295.12 193.133C295.12 193.349 295.08 193.573 295 193.805L294.316 193.805C294.38 193.645 294.412 193.457 294.412 193.241C294.412 192.929 294.264 192.657 293.968 192.425C293.672 192.193 293.292 192.005 292.828 191.861C292.356 191.717 291.768 191.593 291.064 191.489C290.36 191.385 289.668 191.301 288.988 191.237C288.3 191.173 287.524 191.109 286.66 191.045C286.636 191.045 286.616 191.045 286.6 191.045ZM286.6 176.602L286.6 175.894L295 175.894L295 176.602L291.124 176.602L291.124 182.05L295 182.05L295 182.758L286.6 182.758L286.6 182.05L290.44 182.05L290.44 176.602L286.6 176.602ZM286.6 172.57L286.6 166.99L287.284 166.99L287.284 171.862L290.428 171.862L290.428 167.35L291.112 167.35L291.112 171.862L294.316 171.862L294.316 166.906L295 166.906L295 172.57L286.6 172.57ZM286.6 157.985L286.6 157.277L295 157.277L295 157.985L291.124 157.985L291.124 163.433L295 163.433L295 164.141L286.6 164.141L286.6 163.433L290.44 163.433L290.44 157.985L286.6 157.985ZM295 147.089L295 147.797L288.52 147.797L287.8 147.797L295 153.305L295 153.953L286.6 153.953L286.6 153.245L293.068 153.245L293.788 153.245L286.6 147.737L286.6 147.089L295 147.089ZM286.6 143.766L286.6 138.186L287.284 138.186L287.284 143.058L290.428 143.058L290.428 138.546L291.112 138.546L291.112 143.058L294.316 143.058L294.316 138.102L295 138.102L295 143.766L286.6 143.766Z" fill="white"/>
<path d="M295 316.1L295 316.868L286.6 313.124L286.6 312.32L295 308.588L295 309.356L292.744 310.352L292.744 315.092L295 316.1ZM287.596 312.836L292.072 314.816L292.072 310.64L287.596 312.62C287.532 312.644 287.444 312.68 287.332 312.728C287.444 312.776 287.532 312.812 287.596 312.836ZM286.6 300.125L286.6 299.417L295 299.417L295 300.125L291.124 300.125L291.124 305.573L295 305.573L295 306.281L286.6 306.281L286.6 305.573L290.44 305.573L290.44 300.125L286.6 300.125ZM295 296.358L295 297.126L286.6 293.382L286.6 292.578L295 288.846L295 289.614L292.744 290.61L292.744 295.35L295 296.358ZM287.596 293.094L292.072 295.074L292.072 290.898L287.596 292.878C287.532 292.902 287.444 292.938 287.332 292.986C287.444 293.034 287.532 293.07 287.596 293.094ZM286.6 284.861L286.6 279.905L295 279.905L295 280.613L287.284 280.613L287.284 284.177C287.796 284.217 288.196 284.253 288.484 284.285C288.764 284.309 289.144 284.345 289.624 284.393C290.096 284.441 290.472 284.489 290.752 284.537C291.024 284.577 291.36 284.629 291.76 284.693C292.152 284.757 292.468 284.829 292.708 284.909C292.94 284.981 293.204 285.065 293.5 285.161C293.788 285.257 294.016 285.365 294.184 285.485C294.352 285.605 294.516 285.741 294.676 285.893C294.836 286.037 294.948 286.197 295.012 286.373C295.084 286.549 295.12 286.741 295.12 286.949C295.12 287.165 295.08 287.389 295 287.621L294.316 287.621C294.38 287.461 294.412 287.273 294.412 287.057C294.412 286.745 294.264 286.473 293.968 286.241C293.672 286.009 293.292 285.821 292.828 285.677C292.356 285.533 291.768 285.409 291.064 285.305C290.36 285.201 289.668 285.117 288.988 285.053C288.3 284.989 287.524 284.925 286.66 284.861C286.636 284.861 286.616 284.861 286.6 284.861ZM295 269.71L295 270.418L288.52 270.418L287.8 270.418L295 275.926L295 276.574L286.6 276.574L286.6 275.866L293.068 275.866L293.788 275.866L286.6 270.358L286.6 269.71L295 269.71ZM292.744 260.867C293.168 260.867 293.54 260.963 293.86 261.155C294.18 261.347 294.432 261.607 294.616 261.935C294.792 262.255 294.92 262.603 295 262.979C295.088 263.347 295.132 263.731 295.132 264.131C295.132 265.235 294.96 266.215 294.616 267.071L293.896 267.071C294.272 266.263 294.46 265.299 294.46 264.179C294.46 263.731 294.412 263.323 294.316 262.955C294.212 262.587 294.02 262.267 293.74 261.995C293.46 261.723 293.104 261.587 292.672 261.587C292.248 261.587 291.904 261.723 291.64 261.995C291.376 262.259 291.2 262.571 291.112 262.931C291.016 263.283 290.968 263.683 290.968 264.131L290.968 265.787L290.296 265.787L290.296 264.203C290.296 263.515 290.16 262.967 289.888 262.559C289.608 262.143 289.224 261.935 288.736 261.935C288.192 261.935 287.792 262.151 287.536 262.583C287.272 263.015 287.14 263.591 287.14 264.311C287.14 265.231 287.332 266.103 287.716 266.927L286.996 266.927C286.644 266.143 286.468 265.255 286.468 264.263C286.468 263.367 286.656 262.635 287.032 262.067C287.4 261.499 287.94 261.215 288.652 261.215C289.164 261.215 289.588 261.367 289.924 261.671C290.26 261.975 290.488 262.379 290.608 262.883C290.696 262.331 290.916 261.859 291.268 261.467C291.612 261.067 292.104 260.867 292.744 260.867Z" fill="white"/>
<path d="M42 282.128L42 282.836L33.6 282.836L33.6 276.152L42 276.152L42 276.86L34.284 276.86L34.284 282.128L42 282.128ZM33.6 272.824L33.6 270.064C33.6 267.704 34.488 266.524 36.264 266.524C38.048 266.524 38.94 267.704 38.94 270.064L38.94 272.116L42 272.116L42 272.824L33.6 272.824ZM36.264 267.244C35.528 267.244 35.016 267.496 34.728 268C34.432 268.496 34.284 269.172 34.284 270.028L34.284 272.104L38.256 272.104L38.256 270.028C38.256 268.172 37.592 267.244 36.264 267.244ZM39.384 264.25C38.872 264.434 38.344 264.526 37.8 264.526C37.256 264.526 36.732 264.434 36.228 264.25C35.716 264.066 35.252 263.798 34.836 263.446C34.42 263.094 34.088 262.634 33.84 262.066C33.592 261.498 33.468 260.862 33.468 260.158C33.468 259.454 33.592 258.818 33.84 258.25C34.088 257.682 34.42 257.222 34.836 256.87C35.252 256.518 35.716 256.25 36.228 256.066C36.732 255.882 37.256 255.79 37.8 255.79C38.344 255.79 38.872 255.882 39.384 256.066C39.888 256.25 40.348 256.518 40.764 256.87C41.18 257.222 41.512 257.682 41.76 258.25C42.008 258.818 42.132 259.454 42.132 260.158C42.132 260.862 42.008 261.498 41.76 262.066C41.512 262.634 41.18 263.094 40.764 263.446C40.348 263.798 39.888 264.066 39.384 264.25ZM39.564 256.894C39.02 256.638 38.432 256.51 37.8 256.51C37.168 256.51 36.584 256.638 36.048 256.894C35.504 257.15 35.052 257.562 34.692 258.13C34.324 258.698 34.14 259.374 34.14 260.158C34.14 260.942 34.324 261.618 34.692 262.186C35.052 262.754 35.504 263.166 36.048 263.422C36.584 263.678 37.168 263.806 37.8 263.806C38.432 263.806 39.02 263.678 39.564 263.422C40.1 263.166 40.552 262.754 40.92 262.186C41.28 261.618 41.46 260.942 41.46 260.158C41.46 259.374 41.28 258.698 40.92 258.13C40.552 257.562 40.1 257.15 39.564 256.894ZM33.6 253.047L33.6 249.783C33.6 248.903 33.78 248.211 34.14 247.707C34.492 247.195 35.016 246.939 35.712 246.939C36.232 246.939 36.652 247.087 36.972 247.383C37.284 247.671 37.488 248.027 37.584 248.451C37.688 247.955 37.908 247.527 38.244 247.167C38.58 246.799 39.072 246.611 39.72 246.603C40.088 246.603 40.416 246.675 40.704 246.819C40.984 246.963 41.204 247.143 41.364 247.359C41.524 247.567 41.656 247.819 41.76 248.115C41.856 248.411 41.92 248.687 41.952 248.943C41.984 249.199 42 249.471 42 249.759L42 253.047L33.6 253.047ZM39.648 247.323C38.528 247.323 37.968 248.063 37.968 249.543L37.968 252.327L41.316 252.327L41.316 249.891C41.316 249.611 41.308 249.371 41.292 249.171C41.276 248.971 41.236 248.747 41.172 248.499C41.108 248.251 41.02 248.047 40.908 247.887C40.796 247.727 40.632 247.595 40.416 247.491C40.2 247.379 39.944 247.323 39.648 247.323ZM35.808 247.659C34.792 247.659 34.284 248.383 34.284 249.831L34.284 252.327L37.296 252.327L37.296 249.483C37.296 248.963 37.176 248.531 36.936 248.187C36.688 247.835 36.312 247.659 35.808 247.659ZM33.6 243.832L33.6 238.252L34.284 238.252L34.284 243.124L37.428 243.124L37.428 238.612L38.112 238.612L38.112 243.124L41.316 243.124L41.316 238.168L42 238.168L42 243.832L33.6 243.832ZM33.6 235.402L33.6 232.642C33.6 230.282 34.488 229.102 36.264 229.102C38.048 229.102 38.94 230.282 38.94 232.642L38.94 234.694L42 234.694L42 235.402L33.6 235.402ZM36.264 229.822C35.528 229.822 35.016 230.074 34.728 230.578C34.432 231.074 34.284 231.75 34.284 232.606L34.284 234.682L38.256 234.682L38.256 232.606C38.256 230.75 37.592 229.822 36.264 229.822ZM42 225.808L42 226.516L33.6 226.516L33.6 225.808L37.368 225.808L37.368 223.612L33.6 220.9L33.6 220.084L37.692 223.024L42 219.796L42 220.624L38.04 223.588L38.04 225.808L42 225.808ZM42 217.858L42 218.626L33.6 214.882L33.6 214.078L42 210.346L42 211.114L39.744 212.11L39.744 216.85L42 217.858ZM34.596 214.594L39.072 216.574L39.072 212.398L34.596 214.378C34.532 214.402 34.444 214.438 34.332 214.486C34.444 214.534 34.532 214.57 34.596 214.594Z" fill="white"/>
<path d="M120.164 45.6H123.428C124.308 45.6 125 45.78 125.504 46.14C126.016 46.492 126.272 47.016 126.272 47.712C126.272 48.232 126.124 48.652 125.828 48.972C125.54 49.284 125.184 49.488 124.76 49.584C125.256 49.688 125.684 49.908 126.044 50.244C126.412 50.58 126.6 51.072 126.608 51.72C126.608 52.088 126.536 52.416 126.392 52.704C126.248 52.984 126.068 53.204 125.852 53.364C125.644 53.524 125.392 53.656 125.096 53.76C124.8 53.856 124.524 53.92 124.268 53.952C124.012 53.984 123.74 54 123.452 54H120.164V45.6ZM125.888 51.648C125.888 50.528 125.148 49.968 123.668 49.968H120.884V53.316H123.32C123.6 53.316 123.84 53.308 124.04 53.292C124.24 53.276 124.464 53.236 124.712 53.172C124.96 53.108 125.164 53.02 125.324 52.908C125.484 52.796 125.616 52.632 125.72 52.416C125.832 52.2 125.888 51.944 125.888 51.648ZM125.552 47.808C125.552 46.792 124.828 46.284 123.38 46.284H120.884V49.296H123.728C124.248 49.296 124.68 49.176 125.024 48.936C125.376 48.688 125.552 48.312 125.552 47.808ZM128.916 54H128.148L131.892 45.6H132.696L136.428 54H135.66L134.664 51.744H129.924L128.916 54ZM132.18 46.596L130.2 51.072H134.376L132.396 46.596C132.372 46.532 132.336 46.444 132.288 46.332C132.24 46.444 132.204 46.532 132.18 46.596ZM149.138 54H138.734V45.6H139.442V53.316H143.582V45.6H144.29V53.316H148.43V45.6H149.138V54ZM159.325 54H158.617V47.52V46.8L153.109 54H152.461V45.6H153.169V52.068V52.788L158.677 45.6H159.325V54ZM173.594 54H172.886V47.52V46.8L167.378 54H166.73V45.6H167.438V52.068V52.788L172.946 45.6H173.594V54ZM176.654 56.04H175.97V53.316H176.918C177.894 51.564 178.382 48.992 178.382 45.6H183.422V53.316H184.466V56.04H183.782V54H176.654V56.04ZM179.114 46.284C179.01 49.412 178.546 51.756 177.722 53.316H182.714V46.284H179.114ZM187.012 45.6H192.592V46.284H187.72V49.428H192.232V50.112H187.72V53.316H192.676V54H187.012V45.6ZM202.305 54H201.597V47.52V46.8L196.089 54H195.441V45.6H196.149V52.068V52.788L201.657 45.6H202.305V54Z" fill="white"/>
<path d="M126.164 446.6H128.924C131.284 446.6 132.464 447.488 132.464 449.264C132.464 451.048 131.284 451.94 128.924 451.94H126.872V455H126.164V446.6ZM131.744 449.264C131.744 448.528 131.492 448.016 130.988 447.728C130.492 447.432 129.816 447.284 128.96 447.284H126.884V451.256H128.96C130.816 451.256 131.744 450.592 131.744 449.264ZM135.051 446.6H140.631V447.284H135.759V450.428H140.271V451.112H135.759V454.316H140.715V455H135.051V446.6ZM149 452.744C149 453.168 148.904 453.54 148.712 453.86C148.52 454.18 148.26 454.432 147.932 454.616C147.612 454.792 147.264 454.92 146.888 455C146.52 455.088 146.136 455.132 145.736 455.132C144.632 455.132 143.652 454.96 142.796 454.616V453.896C143.604 454.272 144.568 454.46 145.688 454.46C146.136 454.46 146.544 454.412 146.912 454.316C147.28 454.212 147.6 454.02 147.872 453.74C148.144 453.46 148.28 453.104 148.28 452.672C148.28 452.248 148.144 451.904 147.872 451.64C147.608 451.376 147.296 451.2 146.936 451.112C146.584 451.016 146.184 450.968 145.736 450.968H144.08V450.296H145.664C146.352 450.296 146.9 450.16 147.308 449.888C147.724 449.608 147.932 449.224 147.932 448.736C147.932 448.192 147.716 447.792 147.284 447.536C146.852 447.272 146.276 447.14 145.556 447.14C144.636 447.14 143.764 447.332 142.94 447.716V446.996C143.724 446.644 144.612 446.468 145.604 446.468C146.5 446.468 147.232 446.656 147.8 447.032C148.368 447.4 148.652 447.94 148.652 448.652C148.652 449.164 148.5 449.588 148.196 449.924C147.892 450.26 147.488 450.488 146.984 450.608C147.536 450.696 148.008 450.916 148.4 451.268C148.8 451.612 149 452.104 149 452.744ZM154.973 453.092C154.597 453.86 154.201 454.392 153.785 454.688C153.369 454.984 152.913 455.132 152.417 455.132C152.057 455.132 151.709 455.084 151.373 454.988V454.316C151.725 454.412 152.033 454.46 152.297 454.46C152.673 454.46 153.005 454.368 153.293 454.184C153.581 454 153.861 453.66 154.133 453.164L154.277 452.864L150.737 446.6H151.529L154.661 452.192L157.385 446.6H158.153L154.973 453.092ZM161.174 446.6H166.13V455H165.422V447.284H161.858C161.818 447.796 161.782 448.196 161.75 448.484C161.726 448.764 161.69 449.144 161.642 449.624C161.594 450.096 161.546 450.472 161.498 450.752C161.458 451.024 161.406 451.36 161.342 451.76C161.278 452.152 161.206 452.468 161.126 452.708C161.054 452.94 160.97 453.204 160.874 453.5C160.778 453.788 160.67 454.016 160.55 454.184C160.43 454.352 160.294 454.516 160.142 454.676C159.998 454.836 159.838 454.948 159.662 455.012C159.486 455.084 159.294 455.12 159.086 455.12C158.87 455.12 158.646 455.08 158.414 455V454.316C158.574 454.38 158.762 454.412 158.978 454.412C159.29 454.412 159.562 454.264 159.794 453.968C160.026 453.672 160.214 453.292 160.358 452.828C160.502 452.356 160.626 451.768 160.73 451.064C160.834 450.36 160.918 449.668 160.982 448.988C161.046 448.3 161.11 447.524 161.174 446.66C161.174 446.636 161.174 446.616 161.174 446.6ZM172.221 455H169.461V446.6H170.169V449.672H172.221C174.581 449.672 175.761 450.56 175.761 452.336C175.761 454.112 174.581 455 172.221 455ZM170.181 450.356V454.316H172.257C173.113 454.316 173.789 454.172 174.285 453.884C174.789 453.588 175.041 453.072 175.041 452.336C175.041 451.016 174.113 450.356 172.257 450.356H170.181ZM176.227 446.6H183.079V447.284H180.007V455H179.299V447.284H176.227V446.6ZM184.252 455H183.484L187.228 446.6H188.032L191.764 455H190.996L190 452.744H185.26L184.252 455ZM187.516 447.596L185.536 452.072H189.712L187.732 447.596C187.708 447.532 187.672 447.444 187.624 447.332C187.576 447.444 187.54 447.532 187.516 447.596ZM192.184 446.6H199.036V447.284H195.964V455H195.256V447.284H192.184V446.6Z" fill="white"/>
<path d="M276 146L276 521" stroke="white" stroke-opacity="0.45"/>
<path d="M273.5 148L277.5 144" stroke="white" stroke-opacity="0.45"/>
<path d="M274 370L278 366" stroke="white" stroke-opacity="0.45"/>
<circle cx="36.5" cy="178.5" r="2.5" fill="white"/>
<circle cx="36.5" cy="294.5" r="2.5" fill="white"/>
<circle cx="291.5" cy="242.5" r="2.5" fill="white"/>
<circle cx="291.5" cy="326.5" r="2.5" fill="white"/>
<path d="M267.09 349.065C266.7 348.785 266.36 348.4 266.07 347.91C265.78 347.42 265.635 346.875 265.635 346.275C265.635 345.425 265.905 344.725 266.445 344.175C266.975 343.625 267.68 343.35 268.56 343.35L273 343.35L273 344.205L268.665 344.205C267.945 344.205 267.39 344.405 267 344.805C266.61 345.205 266.415 345.725 266.415 346.365C266.415 346.935 266.575 347.445 266.895 347.895C267.215 348.335 267.605 348.695 268.065 348.975L273 348.975L273 349.83L265.8 349.83L265.8 349.065L267.09 349.065Z" fill="white"/>
<path d="M269 518.415L269 519.213L262.28 519.213L262.28 513.263L269 513.263L269 514.047L263.022 514.047L263.022 518.415L269 518.415ZM268.216 510.504C267.581 511.195 266.723 511.54 265.64 511.54C264.557 511.54 263.703 511.195 263.078 510.504C262.443 509.804 262.126 508.973 262.126 508.012C262.126 507.041 262.443 506.211 263.078 505.52C263.703 504.82 264.557 504.47 265.64 504.47C266.723 504.47 267.581 504.82 268.216 505.52C268.841 506.211 269.154 507.041 269.154 508.012C269.154 508.973 268.841 509.804 268.216 510.504ZM267.656 506.052C267.161 505.529 266.489 505.268 265.64 505.268C264.791 505.268 264.119 505.529 263.624 506.052C263.129 506.575 262.882 507.223 262.882 507.998C262.882 508.773 263.129 509.426 263.624 509.958C264.119 510.481 264.791 510.742 265.64 510.742C266.489 510.742 267.161 510.481 267.656 509.958C268.151 509.426 268.398 508.773 268.398 507.998C268.398 507.223 268.151 506.575 267.656 506.052ZM265.682 503.214C264.898 503.214 264.231 503.032 263.68 502.668C263.12 502.294 262.723 501.842 262.49 501.31C262.247 500.778 262.126 500.204 262.126 499.588C262.126 498.766 262.308 498.09 262.672 497.558L263.442 497.558C263.05 498.08 262.854 498.724 262.854 499.49C262.854 500.292 263.092 500.983 263.568 501.562C264.044 502.131 264.744 502.416 265.668 502.416C266.555 502.416 267.236 502.14 267.712 501.59C268.188 501.03 268.426 500.358 268.426 499.574C268.426 498.799 268.244 498.104 267.88 497.488L268.678 497.488C268.995 498.122 269.154 498.855 269.154 499.686C269.154 500.638 268.855 501.464 268.258 502.164C267.661 502.864 266.802 503.214 265.682 503.214ZM269 493.245L269 494.043L263.022 494.043L263.022 496.647L262.28 496.647L262.28 490.641L263.022 490.641L263.022 493.245L269 493.245ZM268.216 489.053C267.581 489.743 266.723 490.089 265.64 490.089C264.557 490.089 263.703 489.743 263.078 489.053C262.443 488.353 262.126 487.522 262.126 486.561C262.126 485.59 262.443 484.759 263.078 484.069C263.703 483.369 264.557 483.019 265.64 483.019C266.723 483.019 267.581 483.369 268.216 484.069C268.841 484.759 269.154 485.59 269.154 486.561C269.154 487.522 268.841 488.353 268.216 489.053ZM267.656 484.601C267.161 484.078 266.489 483.817 265.64 483.817C264.791 483.817 264.119 484.078 263.624 484.601C263.129 485.123 262.882 485.772 262.882 486.547C262.882 487.321 263.129 487.975 263.624 488.507C264.119 489.029 264.791 489.291 265.64 489.291C266.489 489.291 267.161 489.029 267.656 488.507C268.151 487.975 268.398 487.321 268.398 486.547C268.398 485.772 268.151 485.123 267.656 484.601ZM269 480.993L269 481.931L266.424 479.929C266.293 480.461 266.046 480.876 265.682 481.175C265.318 481.473 264.889 481.623 264.394 481.623C263.787 481.623 263.283 481.399 262.882 480.951C262.481 480.503 262.28 479.891 262.28 479.117L262.28 475.911L269 475.911L269 476.709L266.508 476.709L266.508 479.075L269 480.993ZM263.372 480.363C263.624 480.671 263.965 480.825 264.394 480.825C264.823 480.825 265.164 480.666 265.416 480.349C265.668 480.031 265.794 479.597 265.794 479.047L265.794 476.695L262.994 476.695L262.994 479.047C262.994 479.607 263.12 480.045 263.372 480.363ZM269 472.928L269 473.726L262.28 473.726L262.28 472.928L265.276 472.928L265.276 468.56L262.28 468.56L262.28 467.776L269 467.776L269 468.56L266.004 468.56L266.004 472.928L269 472.928ZM269 464.794L269 465.592L262.28 465.592L262.28 464.794L265.276 464.794L265.276 460.426L262.28 460.426L262.28 459.642L269 459.642L269 460.426L266.004 460.426L266.004 464.794L269 464.794ZM269 454.377L269 457.457L262.28 457.457L262.28 456.659L264.73 456.659L264.73 454.377C264.73 453.602 264.931 452.981 265.332 452.515C265.733 452.048 266.242 451.815 266.858 451.815C267.483 451.815 267.997 452.048 268.398 452.515C268.799 452.981 269 453.602 269 454.377ZM265.444 456.673L268.286 456.673L268.286 454.489C268.286 453.91 268.16 453.457 267.908 453.131C267.656 452.795 267.306 452.627 266.858 452.627C266.41 452.627 266.065 452.795 265.822 453.131C265.57 453.467 265.444 453.919 265.444 454.489L265.444 456.673ZM269 449.687L269 450.485L262.28 450.485L262.28 449.687L269 449.687ZM260.614 442.618C260.997 443.14 261.188 443.766 261.188 444.494C261.188 445.231 260.997 445.852 260.614 446.356L259.872 446.356C260.283 445.796 260.488 445.175 260.488 444.494C260.488 443.812 260.283 443.187 259.872 442.618L260.614 442.618ZM269 446.818L269 447.504L262.28 447.504L262.28 446.706L267.726 446.706L262.28 442.156L262.28 441.47L269 441.47L269 442.254L263.554 442.254L269 446.818ZM269 434.893L269 435.691L262.28 435.691L262.28 429.741L269 429.741L269 430.525L263.022 430.525L263.022 434.893L269 434.893ZM263.666 426.842C262.639 426.133 262.126 425.176 262.126 423.972C262.126 423.011 262.457 422.213 263.12 421.578C263.773 420.944 264.613 420.626 265.64 420.626C266.667 420.626 267.511 420.944 268.174 421.578C268.827 422.213 269.154 423.011 269.154 423.972C269.154 424.598 269.019 425.148 268.748 425.624C268.468 426.1 268.118 426.478 267.698 426.758L272.08 426.758L272.08 427.556L262.28 427.556L262.28 426.842L263.666 426.842ZM265.64 421.424C264.8 421.424 264.128 421.676 263.624 422.18C263.111 422.684 262.854 423.314 262.854 424.07C262.854 424.696 263.036 425.251 263.4 425.736C263.755 426.222 264.198 426.567 264.73 426.772L266.55 426.772C267.082 426.567 267.53 426.222 267.894 425.736C268.249 425.251 268.426 424.696 268.426 424.07C268.426 423.305 268.174 422.675 267.67 422.18C267.166 421.676 266.489 421.424 265.64 421.424ZM268.216 418.328C267.581 419.019 266.723 419.364 265.64 419.364C264.557 419.364 263.703 419.019 263.078 418.328C262.443 417.628 262.126 416.797 262.126 415.836C262.126 414.865 262.443 414.035 263.078 413.344C263.703 412.644 264.557 412.294 265.64 412.294C266.723 412.294 267.581 412.644 268.216 413.344C268.841 414.035 269.154 414.865 269.154 415.836C269.154 416.797 268.841 417.628 268.216 418.328ZM267.656 413.876C267.161 413.353 266.489 413.092 265.64 413.092C264.791 413.092 264.119 413.353 263.624 413.876C263.129 414.399 262.882 415.047 262.882 415.822C262.882 416.597 263.129 417.25 263.624 417.782C264.119 418.305 264.791 418.566 265.64 418.566C266.489 418.566 267.161 418.305 267.656 417.782C268.151 417.25 268.398 416.597 268.398 415.822C268.398 415.047 268.151 414.399 267.656 413.876ZM270.862 403.786L270.862 404.556L269 404.556L269 410.576L262.28 410.576L262.28 409.778L268.258 409.778L268.258 405.55L262.28 405.55L262.28 404.766L268.258 404.766L268.258 403.786L270.862 403.786ZM265.64 402.807C264.548 402.807 263.689 402.476 263.064 401.813C262.439 401.141 262.126 400.367 262.126 399.489C262.126 398.995 262.205 398.551 262.364 398.159C262.513 397.767 262.719 397.455 262.98 397.221C263.241 396.979 263.54 396.778 263.876 396.619C264.212 396.461 264.562 396.377 264.926 396.367C265.281 396.349 265.64 396.367 266.004 396.423L266.004 402.009C266.807 401.963 267.413 401.655 267.824 401.085C268.225 400.516 268.426 399.821 268.426 398.999C268.426 398.159 268.244 397.427 267.88 396.801L268.664 396.801C268.991 397.408 269.154 398.178 269.154 399.111C269.154 400.166 268.855 401.048 268.258 401.757C267.661 402.457 266.788 402.807 265.64 402.807ZM265.304 397.123C264.716 397.058 264.161 397.217 263.638 397.599C263.115 397.973 262.854 398.584 262.854 399.433C262.854 400.124 263.073 400.717 263.512 401.211C263.941 401.706 264.539 401.972 265.304 402.009L265.304 397.123ZM265.682 395.165C264.898 395.165 264.231 394.983 263.68 394.619C263.12 394.246 262.723 393.793 262.49 393.261C262.247 392.729 262.126 392.155 262.126 391.539C262.126 390.718 262.308 390.041 262.672 389.509L263.442 389.509C263.05 390.032 262.854 390.676 262.854 391.441C262.854 392.244 263.092 392.934 263.568 393.513C264.044 394.082 264.744 394.367 265.668 394.367C266.555 394.367 267.236 394.092 267.712 393.541C268.188 392.981 268.426 392.309 268.426 391.525C268.426 390.75 268.244 390.055 267.88 389.439L268.678 389.439C268.995 390.074 269.154 390.806 269.154 391.637C269.154 392.589 268.855 393.415 268.258 394.115C267.661 394.815 266.802 395.165 265.682 395.165ZM265.682 388.343C264.898 388.343 264.231 388.161 263.68 387.797C263.12 387.423 262.723 386.971 262.49 386.439C262.247 385.907 262.126 385.333 262.126 384.717C262.126 383.895 262.308 383.219 262.672 382.687L263.442 382.687C263.05 383.209 262.854 383.853 262.854 384.619C262.854 385.421 263.092 386.112 263.568 386.691C264.044 387.26 264.744 387.545 265.668 387.545C266.555 387.545 267.236 387.269 267.712 386.719C268.188 386.159 268.426 385.487 268.426 384.703C268.426 383.928 268.244 383.233 267.88 382.617L268.678 382.617C268.995 383.251 269.154 383.984 269.154 384.815C269.154 385.767 268.855 386.593 268.258 387.293C267.661 387.993 266.802 388.343 265.682 388.343ZM283.682 516.188C282.898 516.188 282.231 516.006 281.68 515.642C281.12 515.269 280.723 514.816 280.49 514.284C280.247 513.752 280.126 513.178 280.126 512.562C280.126 511.741 280.308 511.064 280.672 510.532L281.442 510.532C281.05 511.055 280.854 511.699 280.854 512.464C280.854 513.267 281.092 513.958 281.568 514.536C282.044 515.106 282.744 515.39 283.668 515.39C284.555 515.39 285.236 515.115 285.712 514.564C286.188 514.004 286.426 513.332 286.426 512.548C286.426 511.774 286.244 511.078 285.88 510.462L286.678 510.462C286.995 511.097 287.154 511.83 287.154 512.66C287.154 513.612 286.855 514.438 286.258 515.138C285.661 515.838 284.802 516.188 283.682 516.188ZM286.216 508.33C285.581 509.021 284.723 509.366 283.64 509.366C282.557 509.366 281.703 509.021 281.078 508.33C280.443 507.63 280.126 506.799 280.126 505.838C280.126 504.867 280.443 504.037 281.078 503.346C281.703 502.646 282.557 502.296 283.64 502.296C284.723 502.296 285.581 502.646 286.216 503.346C286.841 504.037 287.154 504.867 287.154 505.838C287.154 506.799 286.841 507.63 286.216 508.33ZM285.656 503.878C285.161 503.355 284.489 503.094 283.64 503.094C282.791 503.094 282.119 503.355 281.624 503.878C281.129 504.401 280.882 505.049 280.882 505.824C280.882 506.599 281.129 507.252 281.624 507.784C282.119 508.307 282.791 508.568 283.64 508.568C284.489 508.568 285.161 508.307 285.656 507.784C286.151 507.252 286.398 506.599 286.398 505.824C286.398 505.049 286.151 504.401 285.656 503.878ZM287 496.882L287 500.578L280.28 500.578L280.28 497.022C280.28 496.406 280.439 495.911 280.756 495.538C281.064 495.155 281.498 494.964 282.058 494.964C282.422 494.964 282.739 495.057 283.01 495.244C283.281 495.431 283.467 495.678 283.57 495.986C283.663 495.631 283.845 495.337 284.116 495.104C284.387 494.861 284.741 494.74 285.18 494.74C285.749 494.74 286.197 494.931 286.524 495.314C286.841 495.687 287 496.21 287 496.882ZM283.948 499.794L286.3 499.794L286.3 497.008C286.3 496.028 285.913 495.538 285.138 495.538C284.345 495.538 283.948 496.009 283.948 496.952L283.948 499.794ZM280.98 499.794L283.248 499.794L283.248 497.092C283.248 496.215 282.875 495.776 282.128 495.776C281.745 495.776 281.461 495.902 281.274 496.154C281.078 496.397 280.98 496.719 280.98 497.12L280.98 499.794ZM283.64 493.411C282.548 493.411 281.689 493.08 281.064 492.417C280.439 491.745 280.126 490.97 280.126 490.093C280.126 489.598 280.205 489.155 280.364 488.763C280.513 488.371 280.719 488.058 280.98 487.825C281.241 487.582 281.54 487.382 281.876 487.223C282.212 487.064 282.562 486.98 282.926 486.971C283.281 486.952 283.64 486.971 284.004 487.027L284.004 492.613C284.807 492.566 285.413 492.258 285.824 491.689C286.225 491.12 286.426 490.424 286.426 489.603C286.426 488.763 286.244 488.03 285.88 487.405L286.664 487.405C286.991 488.012 287.154 488.782 287.154 489.715C287.154 490.77 286.855 491.652 286.258 492.361C285.661 493.061 284.788 493.411 283.64 493.411ZM283.304 487.727C282.716 487.662 282.161 487.82 281.638 488.203C281.115 488.576 280.854 489.188 280.854 490.037C280.854 490.728 281.073 491.32 281.512 491.815C281.941 492.31 282.539 492.576 283.304 492.613L283.304 487.727ZM281.666 484.592C280.639 483.883 280.126 482.926 280.126 481.722C280.126 480.761 280.457 479.963 281.12 479.328C281.773 478.694 282.613 478.376 283.64 478.376C284.667 478.376 285.511 478.694 286.174 479.328C286.827 479.963 287.154 480.761 287.154 481.722C287.154 482.348 287.019 482.898 286.748 483.374C286.468 483.85 286.118 484.228 285.698 484.508L290.08 484.508L290.08 485.306L280.28 485.306L280.28 484.592L281.666 484.592ZM283.64 479.174C282.8 479.174 282.128 479.426 281.624 479.93C281.111 480.434 280.854 481.064 280.854 481.82C280.854 482.446 281.036 483.001 281.4 483.486C281.755 483.972 282.198 484.317 282.73 484.522L284.55 484.522C285.082 484.317 285.53 483.972 285.894 483.486C286.249 483.001 286.426 482.446 286.426 481.82C286.426 481.055 286.174 480.425 285.67 479.93C285.166 479.426 284.489 479.174 283.64 479.174ZM287 467.454L287 476.652L280.28 476.652L280.28 475.854L286.258 475.854L286.258 472.452L280.28 472.452L280.28 471.654L286.258 471.654L286.258 468.252L280.28 468.252L280.28 467.454L287 467.454ZM283.64 465.725C282.548 465.725 281.689 465.394 281.064 464.731C280.439 464.059 280.126 463.285 280.126 462.407C280.126 461.913 280.205 461.469 280.364 461.077C280.513 460.685 280.719 460.373 280.98 460.139C281.241 459.897 281.54 459.696 281.876 459.537C282.212 459.379 282.562 459.295 282.926 459.285C283.281 459.267 283.64 459.285 284.004 459.341L284.004 464.927C284.807 464.881 285.413 464.573 285.824 464.003C286.225 463.434 286.426 462.739 286.426 461.917C286.426 461.077 286.244 460.345 285.88 459.719L286.664 459.719C286.991 460.326 287.154 461.096 287.154 462.029C287.154 463.084 286.855 463.966 286.258 464.675C285.661 465.375 284.788 465.725 283.64 465.725ZM283.304 460.041C282.716 459.976 282.161 460.135 281.638 460.517C281.115 460.891 280.854 461.502 280.854 462.351C280.854 463.042 281.073 463.635 281.512 464.129C281.941 464.624 282.539 464.89 283.304 464.927L283.304 460.041ZM287 456.823L287 457.621L280.28 457.621L280.28 456.823L283.276 456.823L283.276 452.455L280.28 452.455L280.28 451.671L287 451.671L287 452.455L284.004 452.455L284.004 456.823L287 456.823ZM283.682 449.948C282.898 449.948 282.231 449.766 281.68 449.402C281.12 449.029 280.723 448.576 280.49 448.044C280.247 447.512 280.126 446.938 280.126 446.322C280.126 445.501 280.308 444.824 280.672 444.292L281.442 444.292C281.05 444.815 280.854 445.459 280.854 446.224C280.854 447.027 281.092 447.717 281.568 448.296C282.044 448.865 282.744 449.15 283.668 449.15C284.555 449.15 285.236 448.875 285.712 448.324C286.188 447.764 286.426 447.092 286.426 446.308C286.426 445.533 286.244 444.838 285.88 444.222L286.678 444.222C286.995 444.857 287.154 445.589 287.154 446.42C287.154 447.372 286.855 448.198 286.258 448.898C285.661 449.598 284.802 449.948 283.682 449.948ZM287 439.979L287 440.777L281.022 440.777L281.022 443.381L280.28 443.381L280.28 437.375L281.022 437.375L281.022 439.979L287 439.979ZM287 432.364L287 436.06L280.28 436.06L280.28 432.504C280.28 431.888 280.439 431.394 280.756 431.02C281.064 430.638 281.498 430.446 282.058 430.446C282.422 430.446 282.739 430.54 283.01 430.726C283.281 430.913 283.467 431.16 283.57 431.468C283.663 431.114 283.845 430.82 284.116 430.586C284.387 430.344 284.741 430.222 285.18 430.222C285.749 430.222 286.197 430.414 286.524 430.796C286.841 431.17 287 431.692 287 432.364ZM283.948 435.276L286.3 435.276L286.3 432.49C286.3 431.51 285.913 431.02 285.138 431.02C284.345 431.02 283.948 431.492 283.948 432.434L283.948 435.276ZM280.98 435.276L283.248 435.276L283.248 432.574C283.248 431.697 282.875 431.258 282.128 431.258C281.745 431.258 281.461 431.384 281.274 431.636C281.078 431.879 280.98 432.201 280.98 432.602L280.98 435.276ZM286.216 427.857C285.581 428.548 284.723 428.893 283.64 428.893C282.557 428.893 281.703 428.548 281.078 427.857C280.443 427.157 280.126 426.327 280.126 425.365C280.126 424.395 280.443 423.564 281.078 422.873C281.703 422.173 282.557 421.823 283.64 421.823C284.723 421.823 285.581 422.173 286.216 422.873C286.841 423.564 287.154 424.395 287.154 425.365C287.154 426.327 286.841 427.157 286.216 427.857ZM285.656 423.405C285.161 422.883 284.489 422.621 283.64 422.621C282.791 422.621 282.119 422.883 281.624 423.405C281.129 423.928 280.882 424.577 280.882 425.351C280.882 426.126 281.129 426.779 281.624 427.311C282.119 427.834 282.791 428.095 283.64 428.095C284.489 428.095 285.161 427.834 285.656 427.311C286.151 426.779 286.398 426.126 286.398 425.351C286.398 424.577 286.151 423.928 285.656 423.405ZM287 416.409L287 420.105L280.28 420.105L280.28 416.549C280.28 415.933 280.439 415.439 280.756 415.065C281.064 414.683 281.498 414.491 282.058 414.491C282.422 414.491 282.739 414.585 283.01 414.771C283.281 414.958 283.467 415.205 283.57 415.513C283.663 415.159 283.845 414.865 284.116 414.631C284.387 414.389 284.741 414.267 285.18 414.267C285.749 414.267 286.197 414.459 286.524 414.841C286.841 415.215 287 415.737 287 416.409ZM283.948 419.321L286.3 419.321L286.3 416.535C286.3 415.555 285.913 415.065 285.138 415.065C284.345 415.065 283.948 415.537 283.948 416.479L283.948 419.321ZM280.98 419.321L283.248 419.321L283.248 416.619C283.248 415.742 282.875 415.303 282.128 415.303C281.745 415.303 281.461 415.429 281.274 415.681C281.078 415.924 280.98 416.246 280.98 416.647L280.98 419.321ZM285.782 407.198C286.174 407.198 286.37 406.998 286.37 406.596C286.37 406.447 286.337 406.274 286.272 406.078L286.916 406.078C287.009 406.33 287.056 406.573 287.056 406.806C287.056 407.516 286.711 407.903 286.02 407.968C286.776 408.668 287.154 409.588 287.154 410.726C287.154 411.37 286.986 411.921 286.65 412.378C286.305 412.836 285.81 413.064 285.166 413.064C284.401 413.064 283.845 412.775 283.5 412.196C283.145 411.618 282.968 410.918 282.968 410.096C282.968 409.378 283.066 408.673 283.262 407.982L282.814 407.982C282.217 407.982 281.741 408.169 281.386 408.542C281.031 408.916 280.854 409.443 280.854 410.124C280.854 410.983 281.013 411.786 281.33 412.532L280.546 412.532C280.266 411.739 280.126 410.908 280.126 410.04C280.126 409.144 280.369 408.449 280.854 407.954C281.339 407.45 282.025 407.198 282.912 407.198L285.782 407.198ZM285.124 412.252C285.563 412.252 285.899 412.089 286.132 411.762C286.356 411.436 286.468 411.039 286.468 410.572C286.468 410.059 286.356 409.574 286.132 409.116C285.899 408.659 285.572 408.281 285.152 407.982L283.92 407.982C283.733 408.692 283.64 409.359 283.64 409.984C283.64 410.619 283.761 411.156 284.004 411.594C284.237 412.033 284.611 412.252 285.124 412.252ZM287 404.036L287 404.834L280.28 404.834L280.28 404.036L283.276 404.036L283.276 399.668L280.28 399.668L280.28 398.884L287 398.884L287 399.668L284.004 399.668L284.004 404.036L287 404.036ZM287 396.013L287 396.699L280.28 396.699L280.28 395.901L285.726 395.901L280.28 391.351L280.28 390.665L287 390.665L287 391.449L281.554 391.449L287 396.013ZM287 388.174L287 389.112L284.424 387.11C284.293 387.642 284.046 388.058 283.682 388.356C283.318 388.655 282.889 388.804 282.394 388.804C281.787 388.804 281.283 388.58 280.882 388.132C280.481 387.684 280.28 387.073 280.28 386.298L280.28 383.092L287 383.092L287 383.89L284.508 383.89L284.508 386.256L287 388.174ZM281.372 387.544C281.624 387.852 281.965 388.006 282.394 388.006C282.823 388.006 283.164 387.848 283.416 387.53C283.668 387.213 283.794 386.779 283.794 386.228L283.794 383.876L280.994 383.876L280.994 386.228C280.994 386.788 281.12 387.227 281.372 387.544Z" fill="white"/>
<defs>
<filter id="filter0_d_763_2749" x="124" y="56" width="77" height="78" filterUnits="userSpaceOnUse" color-interpolation-filters="sRGB">
<feFlood flood-opacity="0" result="BackgroundImageFix"/>
<feColorMatrix in="SourceAlpha" type="matrix" values="0 0 0 0 0 0 0 0 0 0 0 0 0 0 0 0 0 0 127 0" result="hardAlpha"/>
<feMorphology radius="5" operator="dilate" in="SourceAlpha" result="effect1_dropShadow_763_2749"/>
<feOffset/>
<feGaussianBlur stdDeviation="10"/>
<feComposite in2="hardAlpha" operator="out"/>
<feColorMatrix type="matrix" values="0 0 0 0 0 0 0 0 0 0.603922 0 0 0 0 0.984314 0 0 0 0.65 0"/>
<feBlend mode="normal" in2="BackgroundImageFix" result="effect1_dropShadow_763_2749"/>
<feBlend mode="normal" in="SourceGraphic" in2="effect1_dropShadow_763_2749" result="shape"/>
</filter>
<filter id="filter1_d_763_2749" x="124" y="360" width="77" height="78" filterUnits="userSpaceOnUse" color-interpolation-filters="sRGB">
<feFlood flood-opacity="0" result="BackgroundImageFix"/>
<feColorMatrix in="SourceAlpha" type="matrix" values="0 0 0 0 0 0 0 0 0 0 0 0 0 0 0 0 0 0 127 0" result="hardAlpha"/>
<feMorphology radius="5" operator="dilate" in="SourceAlpha" result="effect1_dropShadow_763_2749"/>
<feOffset/>
<feGaussianBlur stdDeviation="10"/>
<feComposite in2="hardAlpha" operator="out"/>
<feColorMatrix type="matrix" values="0 0 0 0 0.921569 0 0 0 0 0.172549 0 0 0 0 0.560784 0 0 0 0.65 0"/>
<feBlend mode="normal" in2="BackgroundImageFix" result="effect1_dropShadow_763_2749"/>
<feBlend mode="normal" in="SourceGraphic" in2="effect1_dropShadow_763_2749" result="shape"/>
</filter>
<filter id="filter2_d_763_2749" x="55" y="140" width="76" height="76" filterUnits="userSpaceOnUse" color-interpolation-filters="sRGB">
<feFlood flood-opacity="0" result="BackgroundImageFix"/>
<feColorMatrix in="SourceAlpha" type="matrix" values="0 0 0 0 0 0 0 0 0 0 0 0 0 0 0 0 0 0 127 0" result="hardAlpha"/>
<feMorphology radius="7" operator="dilate" in="SourceAlpha" result="effect1_dropShadow_763_2749"/>
<feOffset/>
<feGaussianBlur stdDeviation="10"/>
<feComposite in2="hardAlpha" operator="out"/>
<feColorMatrix type="matrix" values="0 0 0 0 1 0 0 0 0 0.255833 0 0 0 0 0.64342 0 0 0 0.65 0"/>
<feBlend mode="normal" in2="BackgroundImageFix" result="effect1_dropShadow_763_2749"/>
<feBlend mode="normal" in="SourceGraphic" in2="effect1_dropShadow_763_2749" result="shape"/>
</filter>
<filter id="filter3_d_763_2749" x="152" y="204" width="76" height="76" filterUnits="userSpaceOnUse" color-interpolation-filters="sRGB">
<feFlood flood-opacity="0" result="BackgroundImageFix"/>
<feColorMatrix in="SourceAlpha" type="matrix" values="0 0 0 0 0 0 0 0 0 0 0 0 0 0 0 0 0 0 127 0" result="hardAlpha"/>
<feMorphology radius="7" operator="dilate" in="SourceAlpha" result="effect1_dropShadow_763_2749"/>
<feOffset/>
<feGaussianBlur stdDeviation="10"/>
<feComposite in2="hardAlpha" operator="out"/>
<feColorMatrix type="matrix" values="0 0 0 0 0 0 0 0 0 0.603922 0 0 0 0 0.984314 0 0 0 0.65 0"/>
<feBlend mode="normal" in2="BackgroundImageFix" result="effect1_dropShadow_763_2749"/>
<feBlend mode="normal" in="SourceGraphic" in2="effect1_dropShadow_763_2749" result="shape"/>
</filter>
<filter id="filter4_d_763_2749" x="55" y="257" width="76" height="76" filterUnits="userSpaceOnUse" color-interpolation-filters="sRGB">
<feFlood flood-opacity="0" result="BackgroundImageFix"/>
<feColorMatrix in="SourceAlpha" type="matrix" values="0 0 0 0 0 0 0 0 0 0 0 0 0 0 0 0 0 0 127 0" result="hardAlpha"/>
<feMorphology radius="7" operator="dilate" in="SourceAlpha" result="effect1_dropShadow_763_2749"/>
<feOffset/>
<feGaussianBlur stdDeviation="10"/>
<feComposite in2="hardAlpha" operator="out"/>
<feColorMatrix type="matrix" values="0 0 0 0 0 0 0 0 0 0.603922 0 0 0 0 0.984314 0 0 0 0.65 0"/>
<feBlend mode="normal" in2="BackgroundImageFix" result="effect1_dropShadow_763_2749"/>
<feBlend mode="normal" in="SourceGraphic" in2="effect1_dropShadow_763_2749" result="shape"/>
</filter>
<filter id="filter5_d_763_2749" x="152" y="289" width="76" height="76" filterUnits="userSpaceOnUse" color-interpolation-filters="sRGB">
<feFlood flood-opacity="0" result="BackgroundImageFix"/>
<feColorMatrix in="SourceAlpha" type="matrix" values="0 0 0 0 0 0 0 0 0 0 0 0 0 0 0 0 0 0 127 0" result="hardAlpha"/>
<feMorphology radius="7" operator="dilate" in="SourceAlpha" result="effect1_dropShadow_763_2749"/>
<feOffset/>
<feGaussianBlur stdDeviation="10"/>
<feComposite in2="hardAlpha" operator="out"/>
<feColorMatrix type="matrix" values="0 0 0 0 1 0 0 0 0 0.255833 0 0 0 0 0.64342 0 0 0 0.65 0"/>
<feBlend mode="normal" in2="BackgroundImageFix" result="effect1_dropShadow_763_2749"/>
<feBlend mode="normal" in="SourceGraphic" in2="effect1_dropShadow_763_2749" result="shape"/>
</filter>
</defs>
</svg>
